ProductId,ProductName,Price,Stock,Description,ProductIcon,CategoryType
PA004,Wooden Jharokha in Brown Finish,503,74,Fascinating and dripping with old Indian heritage and Beautifully designed with intricate carvings,https://ii1.pepperfry.com/media/catalog/product/v/i/800x880/vinyl-fox-and-rabbits-wall-sticker-by-asian-paints-vinyl-fox-and-rabbits-wall-sticker-by-asian-paint-wdwznn.jpg,2
PA005,Vinyl Fox And Rabbits Wall Sticker,300,42,The simplest of visuals sometimes transform into the sight you need to see at the end of a long day,https://ii1.pepperfry.com/media/catalog/product/v/i/800x880/vinyl-fox-and-rabbits-wall-sticker-by-asian-paints-vinyl-fox-and-rabbits-wall-sticker-by-asian-paint-wdwznn.jpg,2
AF005,Antique Brass Metal Wall Light,600,32,these lights provides an alluring and charming appeal to your home decor,https://ii1.pepperfry.com/media/catalog/product/a/n/800x880/antique-brass-metal-wall-light-by-eliante-by-jainsons-lights-antique-brass-metal-wall-light-by-elian-95u1ev.jpg,3
AF006,Chandelier,1100,10,Black & Gold 5 Lights Metal & Glass Chandelier,https://ii1.pepperfry.com/media/catalog/product/b/l/800x880/black---gold-5-lights-metal---glass-chandelier-by-stello-black---gold-5-lights-metal---glass-chandel-vwcfsj.jpg,3
WS004,Cotton Rope Hammock,150,46,Hew Cotton Rope Hammock in Multi Colour,https://ii1.pepperfry.com/media/catalog/product/h/e/800x880/hew-cotton-rope-hammock-in-multi-colour-by-hangit-hew-cotton-rope-hammock-in-multi-colour-by-hangit-ieg5xc.jpg,1
WS005,Show plant,320,60,Grey Polymer Cup Shaped Large Planter,https://ii1.pepperfry.com/media/catalog/product/g/r/800x880/grey-polymer-round-planter-by-yuccabe-italia-grey-polymer-round-planter-by-yuccabe-italia-z4yu9h.jpg,1
IF004,Single storage bed,1200,95,As a perfect blend of functionality and exceptional aesthetics,https://ii1.pepperfry.com/media/catalog/product/c/a/494x544/casada-single-bed-with-storage-in-white-colour-casada-single-bed-with-storage-in-white-colour-0emyoe.jpg,0
IF005,Dining Table,2000,45,Wooden 4 Seater Dininng Table Set,https://ii1.pepperfry.com/media/catalog/product/w/a/494x544/walton-4-seater-dining-set-by-hometown-walton-4-seater-dining-set-by-hometown-j2d0z7.jpg,0